Credit Risc Scorecard
…
# Predicted Class Probability
def_yhat_keras_prob_vec  <- predict_proba(object = def_model_keras, x = as.matrix(def_x_test_tbl)) %>%
  as.vector()

def_estimates_keras_tbl <- tibble(
  truth      = as.factor(def_y_test_vec) %>% fct_recode(yes = "1", no = "0"),
  estimate   = as.factor(def_yhat_keras_class_vec) %>% fct_recode(yes = "1", no = "0"),
  class_prob = def_yhat_keras_prob_vec
)

def_estimates_keras_tbl

## # A tibble: 199 x 3
##    truth estimate class_prob
##    <fct> <fct>         <dbl>
##  1 yes   yes         0.553  
##  2 yes   no          0.174  
##  3 no    no          0.00891
##  4 no    no          0.121  
##  5 no    no          0.0186 
##  6 no    no          0.0652 
##  7 no    no          0.0101 
##  8 no    no          0.325  
##  9 no    no          0.419  
## 10 yes   no          0.183  
## # ... with 189 more rows
…
